<?xml version="1.0" encoding="utf-8"?>
<!-- Generator: Adobe Illustrator 20.1.0, SVG Export Plug-In . SVG Version: 6.00 Build 0)  -->
<svg version="1.1" id="Ebene_1" xmlns="http://www.w3.org/2000/svg" xmlns:xlink="http://www.w3.org/1999/xlink" x="0px" y="0px"
	 viewBox="0 0 60 60" style="enable-background:new 0 0 60 60;" xml:space="preserve">
<g id="Ebene_2">
	<g>
		<g>
			<path d="M42.2,7.9c0.5,0,0.9-0.4,0.9-0.9V1.9c0-0.5-0.4-0.9-0.9-0.9s-0.9,0.4-0.9,0.9V7C41.4,7.5,41.7,7.9,42.2,7.9z M37.5,7.9
				c0.5,0,0.9-0.4,0.9-0.9V1.9C38.4,1.4,38,1,37.5,1s-0.9,0.4-0.9,0.9V7C36.6,7.5,37,7.9,37.5,7.9z M32.7,7.9c0.5,0,0.9-0.4,0.9-0.9
				V1.9c0-0.5-0.4-0.9-0.9-0.9s-0.9,0.4-0.9,0.9V7C31.8,7.5,32.2,7.9,32.7,7.9z M28,7.9c0.5,0,0.9-0.4,0.9-0.9V1.9
				C28.9,1.4,28.5,1,28,1s-0.9,0.4-0.9,0.9V7C27.1,7.5,27.5,7.9,28,7.9z M23.6,7.9c0.5,0,0.9-0.4,0.9-0.9V1.9c0-0.5-0.4-0.9-0.9-0.9
				s-0.9,0.4-0.9,0.9V7C22.8,7.5,23.2,7.9,23.6,7.9z M18.9,7.9c0.5,0,0.9-0.4,0.9-0.9V1.9c0-0.5-0.4-0.9-0.9-0.9S18,1.4,18,1.9V7
				C18.1,7.5,18.5,7.9,18.9,7.9z M7,16.8H1.9c-0.5,0-0.9,0.4-0.9,0.9s0.4,0.9,0.9,0.9H7c0.5,0,0.9-0.4,0.9-0.9
				C7.9,17.2,7.5,16.8,7,16.8z M7,21.5H1.9c-0.5,0-0.9,0.4-0.9,0.9s0.4,0.9,0.9,0.9H7c0.5,0,0.9-0.4,0.9-0.9S7.5,21.5,7,21.5z
				 M7,26.3H1.9c-0.5,0-0.9,0.4-0.9,0.9s0.4,0.9,0.9,0.9H7c0.5,0,0.9-0.4,0.9-0.9C7.9,26.7,7.5,26.3,7,26.3z M7,31.1H1.9
				C1.4,31.1,1,31.5,1,32s0.4,0.9,0.9,0.9H7c0.5,0,0.9-0.4,0.9-0.9C7.9,31.4,7.5,31.1,7,31.1z M7,35.4H1.9c-0.5,0-0.9,0.4-0.9,0.9
				s0.4,0.9,0.9,0.9H7c0.5,0,0.9-0.4,0.9-0.9C7.9,35.8,7.5,35.4,7,35.4z M7,40.1H1.9C1.4,40.1,1,40.5,1,41s0.4,0.9,0.9,0.9H7
				c0.5,0,0.9-0.4,0.9-0.9S7.5,40.1,7,40.1z M42.2,52.1c-0.5,0-0.9,0.4-0.9,0.9v5.2c0,0.5,0.4,0.9,0.9,0.9s0.9-0.4,0.9-0.9V53
				C43.1,52.5,42.7,52.1,42.2,52.1z M37.5,52.1c-0.5,0-0.9,0.4-0.9,0.9v5.2c0,0.5,0.4,0.9,0.9,0.9s0.9-0.4,0.9-0.9V53
				C38.4,52.5,38,52.1,37.5,52.1z M32.7,52.1c-0.5,0-0.9,0.4-0.9,0.9v5.2c0,0.5,0.4,0.9,0.9,0.9s0.9-0.4,0.9-0.9V53
				C33.6,52.5,33.2,52.1,32.7,52.1z M28,52.1c-0.5,0-0.9,0.4-0.9,0.9v5.2c0,0.5,0.4,0.9,0.9,0.9s0.9-0.4,0.9-0.9V53
				C28.9,52.5,28.5,52.1,28,52.1z M23.6,52.1c-0.5,0-0.9,0.4-0.9,0.9v5.2c0,0.5,0.4,0.9,0.9,0.9s0.9-0.4,0.9-0.9V53
				C24.5,52.5,24.1,52.1,23.6,52.1z M18.9,52.1c-0.5,0-0.9,0.4-0.9,0.9v5.2c0,0.5,0.4,0.9,0.9,0.9s0.9-0.4,0.9-0.9V53
				C19.8,52.5,19.4,52.1,18.9,52.1z M44.6,10.2H16.5c-2.9,0-5.3,2.4-5.3,5.4v28.1c0,3,2.4,5.4,5.3,5.4h28.1c2.9,0,5.4-2.4,5.4-5.4
				V15.5C50,12.6,47.6,10.2,44.6,10.2z M19.2,18.7c-0.9,0-1.7-0.8-1.7-1.7c0-0.9,0.8-1.7,1.7-1.7c0.9,0,1.7,0.8,1.7,1.7
				C20.9,17.9,20.2,18.7,19.2,18.7z M39.6,38H21.7V20h17.9V38z M53,18.6h5.2c0.5,0,0.9-0.4,0.9-0.9s-0.4-0.9-0.9-0.9H53
				c-0.5,0-0.9,0.4-0.9,0.9S52.5,18.6,53,18.6z M58.1,21.5H53c-0.5,0-0.9,0.4-0.9,0.9s0.4,0.9,0.9,0.9h5.2c0.5,0,0.9-0.4,0.9-0.9
				C59,21.9,58.6,21.5,58.1,21.5z M58.1,26.3H53c-0.5,0-0.9,0.4-0.9,0.9s0.4,0.9,0.9,0.9h5.2c0.5,0,0.9-0.4,0.9-0.9
				C59,26.7,58.6,26.3,58.1,26.3z M58.1,31.1H53c-0.5,0-0.9,0.4-0.9,0.9s0.4,0.9,0.9,0.9h5.2c0.5,0,0.9-0.4,0.9-0.9
				C59,31.4,58.6,31.1,58.1,31.1z M58.1,35.4H53c-0.5,0-0.9,0.4-0.9,0.9s0.4,0.9,0.9,0.9h5.2c0.5,0,0.9-0.4,0.9-0.9
				C59,35.8,58.6,35.4,58.1,35.4z M58.1,40.1H53c-0.5,0-0.9,0.4-0.9,0.9s0.4,0.9,0.9,0.9h5.2c0.5,0,0.9-0.4,0.9-0.9
				C59,40.5,58.6,40.1,58.1,40.1z"/>
		</g>
	</g>
</g>
</svg>
