<?xml version="1.0" encoding="utf-8"?>
<!-- Generator: Adobe Illustrator 20.1.0, SVG Export Plug-In . SVG Version: 6.00 Build 0)  -->
<svg version="1.1" id="Ebene_1" xmlns="http://www.w3.org/2000/svg" xmlns:xlink="http://www.w3.org/1999/xlink" x="0px" y="0px"
	 viewBox="0 0 60 60" style="enable-background:new 0 0 60 60;" xml:space="preserve">
<g id="Ebene_4">
	<path d="M56.2,7H3.8c-2.1,0-3.7,1.7-3.7,3.8v38.4c0,2.1,1.7,3.8,3.7,3.8h52.4c2.1,0,3.7-1.7,3.7-3.8V10.8C59.9,8.7,58.3,7,56.2,7z
		 M56.2,49.2H3.8v-23h52.4V49.2z M3.8,18.6v-7.8h52.4v7.8H3.8z M9.4,45.3h18.7c1,0,1.9-0.9,1.9-1.9c0-1.1-0.8-1.9-1.9-1.9H9.4
		c-1,0-1.9,0.9-1.9,1.9C7.6,44.5,8.4,45.3,9.4,45.3z M33.7,43.4c0,1.1,0.8,1.9,1.9,1.9c1,0,1.9-0.9,1.9-1.9c0-1.1-0.8-1.9-1.9-1.9
		C34.6,41.5,33.7,42.4,33.7,43.4z M41.2,43.4c0,1.1,0.8,1.9,1.9,1.9s1.9-0.9,1.9-1.9c0-1.1-0.8-1.9-1.9-1.9S41.2,42.4,41.2,43.4z
		 M48.7,43.4c0,1.1,0.8,1.9,1.9,1.9c1,0,1.9-0.9,1.9-1.9c0-1.1-0.8-1.9-1.9-1.9S48.7,42.4,48.7,43.4z"/>
</g>
</svg>
