<?xml version="1.0" encoding="utf-8"?>
<!-- Generator: Adobe Illustrator 20.1.0, SVG Export Plug-In . SVG Version: 6.00 Build 0)  -->
<svg version="1.1" id="Ebene_1" xmlns="http://www.w3.org/2000/svg" xmlns:xlink="http://www.w3.org/1999/xlink" x="0px" y="0px"
	 viewBox="0 0 60 60" style="enable-background:new 0 0 60 60;" xml:space="preserve">
<g id="Ebene_7">
	<path d="M46.1,1h-23L5.9,18.4v34.8c0,3.2,2.6,5.8,5.8,5.8h34.5c3.2,0,5.8-2.6,5.8-5.8V6.8C51.9,3.6,49.3,1,46.1,1z M28.9,18.4h-5.8
		V6.8h5.8C28.9,6.8,28.9,18.4,28.9,18.4z M37.5,18.4h-5.8V6.8h5.8V18.4z M46.1,18.4h-5.8V6.8h5.8V18.4z"/>
</g>
</svg>
